<session jtag_chain="DE-SoC [USB-1]" jtag_device="@2: 5CSE(BA4|MA4)/5CSXFC4C6 (0x02D010DD)" sof_file="../output_files/FreeRTOS.sof">
  <display_tree gui_logging_enabled="0">
    <display_branch instance="auto_signaltap_0" log="USE_GLOBAL_TEMP" signal_set="USE_GLOBAL_TEMP" trigger="USE_GLOBAL_TEMP"/>
  </display_tree>
  <instance enabled="true" entity_name="sld_signaltap" is_auto_node="yes" is_expanded="true" name="auto_signaltap_0" source_file="sld_signaltap.vhd">
    <node_ip_info instance_id="0" mfg_id="110" node_id="0" version="6"/>
    <signal_set global_temp="1" is_expanded="true" name="signal_set: 2019/04/16 14:34:16  #0">
      <clock name="CLOCK_50" polarity="posedge" tap_mode="classic"/>
      <config pipeline_level="0" ram_type="AUTO" reserved_data_nodes="0" reserved_storage_qualifier_nodes="0" reserved_trigger_nodes="0" sample_depth="32768" trigger_in_enable="no" trigger_out_enable="no"/>
      <top_entity/>
      <signal_vec>
        <trigger_input_vec>
          <wire name="opal_spi_protocol:opal_spi|DATA_IN[0]" tap_mode="classic"/>
          <wire name="opal_spi_protocol:opal_spi|DATA_IN[1]" tap_mode="classic"/>
          <wire name="opal_spi_protocol:opal_spi|DATA_IN[2]" tap_mode="classic"/>
          <wire name="opal_spi_protocol:opal_spi|DATA_IN[3]" tap_mode="classic"/>
          <wire name="opal_spi_protocol:opal_spi|DATA_IN[4]" tap_mode="classic"/>
          <wire name="opal_spi_protocol:opal_spi|DATA_IN[5]" tap_mode="classic"/>
          <wire name="opal_spi_protocol:opal_spi|ENABLE" tap_mode="classic"/>
          <wire name="opal_spi_protocol:opal_spi|END_ACQ" tap_mode="classic"/>
          <wire name="opal_spi_protocol:opal_spi|OPAL_CLK" tap_mode="classic"/>
          <wire name="opal_spi_protocol:opal_spi|OPAL_CS" tap_mode="classic"/>
          <wire name="opal_spi_protocol:opal_spi|RESET" tap_mode="classic"/>
          <wire name="opal_spi_protocol:opal_spi|START" tap_mode="classic"/>
          <wire name="opal_spi_protocol:opal_spi|hintx[0]" tap_mode="classic"/>
          <wire name="opal_spi_protocol:opal_spi|hintx[1]" tap_mode="classic"/>
          <wire name="opal_spi_protocol:opal_spi|hintx[2]" tap_mode="classic"/>
          <wire name="opal_spi_protocol:opal_spi|hintx[3]" tap_mode="classic"/>
          <wire name="opal_spi_protocol:opal_spi|hintx[4]" tap_mode="classic"/>
          <wire name="opal_spi_protocol:opal_spi|hintx[5]" tap_mode="classic"/>
          <wire name="opal_spi_protocol:opal_spi|rx_counter[0]" tap_mode="classic"/>
          <wire name="opal_spi_protocol:opal_spi|rx_counter[1]" tap_mode="classic"/>
          <wire name="opal_spi_protocol:opal_spi|rx_counter[2]" tap_mode="classic"/>
          <wire name="opal_spi_protocol:opal_spi|rx_counter[3]" tap_mode="classic"/>
          <wire name="opal_spi_protocol:opal_spi|timeout_counter[0]" tap_mode="classic"/>
          <wire name="opal_spi_protocol:opal_spi|timeout_counter[1]" tap_mode="classic"/>
          <wire name="opal_spi_protocol:opal_spi|timeout_counter[2]" tap_mode="classic"/>
          <wire name="opal_spi_protocol:opal_spi|timeout_counter[3]" tap_mode="classic"/>
          <wire name="opal_spi_protocol:opal_spi|timeout_counter[4]" tap_mode="classic"/>
          <wire name="opal_spi_protocol:opal_spi|timeout_counter[5]" tap_mode="classic"/>
          <wire name="opal_spi_protocol:opal_spi|timeout_counter[6]" tap_mode="classic"/>
          <wire name="opal_spi_protocol:opal_spi|timeout_counter[7]" tap_mode="classic"/>
          <wire name="opal_spi_protocol:opal_spi|timeout_counter[8]" tap_mode="classic"/>
        </trigger_input_vec>
        <data_input_vec>
          <wire name="opal_spi_protocol:opal_spi|DATA_IN[0]" tap_mode="classic"/>
          <wire name="opal_spi_protocol:opal_spi|DATA_IN[1]" tap_mode="classic"/>
          <wire name="opal_spi_protocol:opal_spi|DATA_IN[2]" tap_mode="classic"/>
          <wire name="opal_spi_protocol:opal_spi|DATA_IN[3]" tap_mode="classic"/>
          <wire name="opal_spi_protocol:opal_spi|DATA_IN[4]" tap_mode="classic"/>
          <wire name="opal_spi_protocol:opal_spi|DATA_IN[5]" tap_mode="classic"/>
          <wire name="opal_spi_protocol:opal_spi|ENABLE" tap_mode="classic"/>
          <wire name="opal_spi_protocol:opal_spi|END_ACQ" tap_mode="classic"/>
          <wire name="opal_spi_protocol:opal_spi|OPAL_CLK" tap_mode="classic"/>
          <wire name="opal_spi_protocol:opal_spi|OPAL_CS" tap_mode="classic"/>
          <wire name="opal_spi_protocol:opal_spi|RESET" tap_mode="classic"/>
          <wire name="opal_spi_protocol:opal_spi|START" tap_mode="classic"/>
          <wire name="opal_spi_protocol:opal_spi|hintx[0]" tap_mode="classic"/>
          <wire name="opal_spi_protocol:opal_spi|hintx[1]" tap_mode="classic"/>
          <wire name="opal_spi_protocol:opal_spi|hintx[2]" tap_mode="classic"/>
          <wire name="opal_spi_protocol:opal_spi|hintx[3]" tap_mode="classic"/>
          <wire name="opal_spi_protocol:opal_spi|hintx[4]" tap_mode="classic"/>
          <wire name="opal_spi_protocol:opal_spi|hintx[5]" tap_mode="classic"/>
          <wire name="opal_spi_protocol:opal_spi|rx_counter[0]" tap_mode="classic"/>
          <wire name="opal_spi_protocol:opal_spi|rx_counter[1]" tap_mode="classic"/>
          <wire name="opal_spi_protocol:opal_spi|rx_counter[2]" tap_mode="classic"/>
          <wire name="opal_spi_protocol:opal_spi|rx_counter[3]" tap_mode="classic"/>
          <wire name="opal_spi_protocol:opal_spi|timeout_counter[0]" tap_mode="classic"/>
          <wire name="opal_spi_protocol:opal_spi|timeout_counter[1]" tap_mode="classic"/>
          <wire name="opal_spi_protocol:opal_spi|timeout_counter[2]" tap_mode="classic"/>
          <wire name="opal_spi_protocol:opal_spi|timeout_counter[3]" tap_mode="classic"/>
          <wire name="opal_spi_protocol:opal_spi|timeout_counter[4]" tap_mode="classic"/>
          <wire name="opal_spi_protocol:opal_spi|timeout_counter[5]" tap_mode="classic"/>
          <wire name="opal_spi_protocol:opal_spi|timeout_counter[6]" tap_mode="classic"/>
          <wire name="opal_spi_protocol:opal_spi|timeout_counter[7]" tap_mode="classic"/>
          <wire name="opal_spi_protocol:opal_spi|timeout_counter[8]" tap_mode="classic"/>
        </data_input_vec>
        <storage_qualifier_input_vec>
          <wire name="opal_spi_protocol:opal_spi|DATA_IN[0]" tap_mode="classic"/>
          <wire name="opal_spi_protocol:opal_spi|DATA_IN[1]" tap_mode="classic"/>
          <wire name="opal_spi_protocol:opal_spi|DATA_IN[2]" tap_mode="classic"/>
          <wire name="opal_spi_protocol:opal_spi|DATA_IN[3]" tap_mode="classic"/>
          <wire name="opal_spi_protocol:opal_spi|DATA_IN[4]" tap_mode="classic"/>
          <wire name="opal_spi_protocol:opal_spi|DATA_IN[5]" tap_mode="classic"/>
          <wire name="opal_spi_protocol:opal_spi|ENABLE" tap_mode="classic"/>
          <wire name="opal_spi_protocol:opal_spi|END_ACQ" tap_mode="classic"/>
          <wire name="opal_spi_protocol:opal_spi|OPAL_CLK" tap_mode="classic"/>
          <wire name="opal_spi_protocol:opal_spi|OPAL_CS" tap_mode="classic"/>
          <wire name="opal_spi_protocol:opal_spi|RESET" tap_mode="classic"/>
          <wire name="opal_spi_protocol:opal_spi|START" tap_mode="classic"/>
          <wire name="opal_spi_protocol:opal_spi|hintx[0]" tap_mode="classic"/>
          <wire name="opal_spi_protocol:opal_spi|hintx[1]" tap_mode="classic"/>
          <wire name="opal_spi_protocol:opal_spi|hintx[2]" tap_mode="classic"/>
          <wire name="opal_spi_protocol:opal_spi|hintx[3]" tap_mode="classic"/>
          <wire name="opal_spi_protocol:opal_spi|hintx[4]" tap_mode="classic"/>
          <wire name="opal_spi_protocol:opal_spi|hintx[5]" tap_mode="classic"/>
          <wire name="opal_spi_protocol:opal_spi|rx_counter[0]" tap_mode="classic"/>
          <wire name="opal_spi_protocol:opal_spi|rx_counter[1]" tap_mode="classic"/>
          <wire name="opal_spi_protocol:opal_spi|rx_counter[2]" tap_mode="classic"/>
          <wire name="opal_spi_protocol:opal_spi|rx_counter[3]" tap_mode="classic"/>
          <wire name="opal_spi_protocol:opal_spi|timeout_counter[0]" tap_mode="classic"/>
          <wire name="opal_spi_protocol:opal_spi|timeout_counter[1]" tap_mode="classic"/>
          <wire name="opal_spi_protocol:opal_spi|timeout_counter[2]" tap_mode="classic"/>
          <wire name="opal_spi_protocol:opal_spi|timeout_counter[3]" tap_mode="classic"/>
          <wire name="opal_spi_protocol:opal_spi|timeout_counter[4]" tap_mode="classic"/>
          <wire name="opal_spi_protocol:opal_spi|timeout_counter[5]" tap_mode="classic"/>
          <wire name="opal_spi_protocol:opal_spi|timeout_counter[6]" tap_mode="classic"/>
          <wire name="opal_spi_protocol:opal_spi|timeout_counter[7]" tap_mode="classic"/>
          <wire name="opal_spi_protocol:opal_spi|timeout_counter[8]" tap_mode="classic"/>
        </storage_qualifier_input_vec>
      </signal_vec>
      <presentation>
        <unified_setup_data_view>
          <node is_selected="false" level-0="alt_or" name="opal_spi_protocol:opal_spi|DATA_IN[5..0]" order="msb_to_lsb" state="collapse" storage-0="alt_or" storage-1="alt_or" storage-2="alt_or" type="combinatorial">
            <node data_index="5" duplicate_name_allowed="false" is_data_input="true" is_node_valid="true" is_selected="false" is_storage_input="true" is_trigger_input="true" level-0="dont_care" name="opal_spi_protocol:opal_spi|DATA_IN[5]" pwr_level-0="dont_care" pwr_storage-0="dont_care" pwr_storage-1="dont_care" pwr_storage-2="dont_care" storage-0="dont_care" storage-1="dont_care" storage-2="dont_care" storage_index="5" tap_mode="classic" trigger_index="5" type="unknown"/>
            <node data_index="4" duplicate_name_allowed="false" is_data_input="true" is_node_valid="true" is_selected="false" is_storage_input="true" is_trigger_input="true" level-0="dont_care" name="opal_spi_protocol:opal_spi|DATA_IN[4]" pwr_level-0="dont_care" pwr_storage-0="dont_care" pwr_storage-1="dont_care" pwr_storage-2="dont_care" storage-0="dont_care" storage-1="dont_care" storage-2="dont_care" storage_index="4" tap_mode="classic" trigger_index="4" type="unknown"/>
            <node data_index="3" duplicate_name_allowed="false" is_data_input="true" is_node_valid="true" is_selected="false" is_storage_input="true" is_trigger_input="true" level-0="dont_care" name="opal_spi_protocol:opal_spi|DATA_IN[3]" pwr_level-0="dont_care" pwr_storage-0="dont_care" pwr_storage-1="dont_care" pwr_storage-2="dont_care" storage-0="dont_care" storage-1="dont_care" storage-2="dont_care" storage_index="3" tap_mode="classic" trigger_index="3" type="unknown"/>
            <node data_index="2" duplicate_name_allowed="false" is_data_input="true" is_node_valid="true" is_selected="false" is_storage_input="true" is_trigger_input="true" level-0="dont_care" name="opal_spi_protocol:opal_spi|DATA_IN[2]" pwr_level-0="dont_care" pwr_storage-0="dont_care" pwr_storage-1="dont_care" pwr_storage-2="dont_care" storage-0="dont_care" storage-1="dont_care" storage-2="dont_care" storage_index="2" tap_mode="classic" trigger_index="2" type="unknown"/>
            <node data_index="1" duplicate_name_allowed="false" is_data_input="true" is_node_valid="true" is_selected="false" is_storage_input="true" is_trigger_input="true" level-0="dont_care" name="opal_spi_protocol:opal_spi|DATA_IN[1]" pwr_level-0="dont_care" pwr_storage-0="dont_care" pwr_storage-1="dont_care" pwr_storage-2="dont_care" storage-0="dont_care" storage-1="dont_care" storage-2="dont_care" storage_index="1" tap_mode="classic" trigger_index="1" type="unknown"/>
            <node data_index="0" duplicate_name_allowed="false" is_data_input="true" is_node_valid="true" is_selected="false" is_storage_input="true" is_trigger_input="true" level-0="dont_care" name="opal_spi_protocol:opal_spi|DATA_IN[0]" pwr_level-0="dont_care" pwr_storage-0="dont_care" pwr_storage-1="dont_care" pwr_storage-2="dont_care" storage-0="dont_care" storage-1="dont_care" storage-2="dont_care" storage_index="0" tap_mode="classic" trigger_index="0" type="unknown"/>
          </node>
          <node data_index="6" duplicate_name_allowed="false" is_data_input="true" is_node_valid="true" is_selected="false" is_storage_input="true" is_trigger_input="true" level-0="dont_care" name="opal_spi_protocol:opal_spi|ENABLE" pwr_level-0="dont_care" pwr_storage-0="dont_care" pwr_storage-1="dont_care" pwr_storage-2="dont_care" storage-0="dont_care" storage-1="dont_care" storage-2="dont_care" storage_index="6" tap_mode="classic" trigger_index="6" type="unknown"/>
          <node data_index="10" duplicate_name_allowed="false" is_data_input="true" is_node_valid="true" is_selected="false" is_storage_input="true" is_trigger_input="true" level-0="dont_care" name="opal_spi_protocol:opal_spi|RESET" pwr_level-0="dont_care" pwr_storage-0="dont_care" pwr_storage-1="dont_care" pwr_storage-2="dont_care" storage-0="dont_care" storage-1="dont_care" storage-2="dont_care" storage_index="10" tap_mode="classic" trigger_index="10" type="unknown"/>
          <node data_index="11" duplicate_name_allowed="false" is_data_input="true" is_node_valid="true" is_selected="false" is_storage_input="true" is_trigger_input="true" level-0="dont_care" name="opal_spi_protocol:opal_spi|START" pwr_level-0="dont_care" pwr_storage-0="dont_care" pwr_storage-1="dont_care" pwr_storage-2="dont_care" storage-0="dont_care" storage-1="dont_care" storage-2="dont_care" storage_index="11" tap_mode="classic" trigger_index="11" type="unknown"/>
          <node data_index="7" duplicate_name_allowed="false" is_data_input="true" is_node_valid="true" is_selected="false" is_storage_input="true" is_trigger_input="true" level-0="dont_care" name="opal_spi_protocol:opal_spi|END_ACQ" pwr_level-0="dont_care" pwr_storage-0="dont_care" pwr_storage-1="dont_care" pwr_storage-2="dont_care" storage-0="dont_care" storage-1="dont_care" storage-2="dont_care" storage_index="7" tap_mode="classic" trigger_index="7" type="unknown"/>
          <node data_index="8" duplicate_name_allowed="false" is_data_input="true" is_node_valid="true" is_selected="false" is_storage_input="true" is_trigger_input="true" level-0="dont_care" name="opal_spi_protocol:opal_spi|OPAL_CLK" pwr_level-0="dont_care" pwr_storage-0="dont_care" pwr_storage-1="dont_care" pwr_storage-2="dont_care" storage-0="dont_care" storage-1="dont_care" storage-2="dont_care" storage_index="8" tap_mode="classic" trigger_index="8" type="unknown"/>
          <node data_index="9" duplicate_name_allowed="false" is_data_input="true" is_node_valid="true" is_selected="false" is_storage_input="true" is_trigger_input="true" level-0="dont_care" name="opal_spi_protocol:opal_spi|OPAL_CS" pwr_level-0="dont_care" pwr_storage-0="dont_care" pwr_storage-1="dont_care" pwr_storage-2="dont_care" storage-0="dont_care" storage-1="dont_care" storage-2="dont_care" storage_index="9" tap_mode="classic" trigger_index="9" type="unknown"/>
          <node is_selected="false" level-0="alt_or" name="opal_spi_protocol:opal_spi|rx_counter[3..0]" order="msb_to_lsb" state="expand" storage-0="alt_or" storage-1="alt_or" storage-2="alt_or" type="register">
            <node data_index="21" duplicate_name_allowed="false" is_data_input="true" is_node_valid="true" is_selected="false" is_storage_input="true" is_trigger_input="true" level-0="dont_care" name="opal_spi_protocol:opal_spi|rx_counter[3]" pwr_level-0="dont_care" pwr_storage-0="dont_care" pwr_storage-1="dont_care" pwr_storage-2="dont_care" storage-0="dont_care" storage-1="dont_care" storage-2="dont_care" storage_index="21" tap_mode="classic" trigger_index="21" type="unknown"/>
            <node data_index="20" duplicate_name_allowed="false" is_data_input="true" is_node_valid="true" is_selected="false" is_storage_input="true" is_trigger_input="true" level-0="dont_care" name="opal_spi_protocol:opal_spi|rx_counter[2]" pwr_level-0="dont_care" pwr_storage-0="dont_care" pwr_storage-1="dont_care" pwr_storage-2="dont_care" storage-0="dont_care" storage-1="dont_care" storage-2="dont_care" storage_index="20" tap_mode="classic" trigger_index="20" type="unknown"/>
            <node data_index="19" duplicate_name_allowed="false" is_data_input="true" is_node_valid="true" is_selected="false" is_storage_input="true" is_trigger_input="true" level-0="dont_care" name="opal_spi_protocol:opal_spi|rx_counter[1]" pwr_level-0="dont_care" pwr_storage-0="dont_care" pwr_storage-1="dont_care" pwr_storage-2="dont_care" storage-0="dont_care" storage-1="dont_care" storage-2="dont_care" storage_index="19" tap_mode="classic" trigger_index="19" type="unknown"/>
            <node data_index="18" duplicate_name_allowed="false" is_data_input="true" is_node_valid="true" is_selected="false" is_storage_input="true" is_trigger_input="true" level-0="dont_care" name="opal_spi_protocol:opal_spi|rx_counter[0]" pwr_level-0="dont_care" pwr_storage-0="dont_care" pwr_storage-1="dont_care" pwr_storage-2="dont_care" storage-0="dont_care" storage-1="dont_care" storage-2="dont_care" storage_index="18" tap_mode="classic" trigger_index="18" type="unknown"/>
          </node>
          <node is_selected="false" level-0="alt_or" name="opal_spi_protocol:opal_spi|timeout_counter[8..0]" order="msb_to_lsb" type="register">
            <node data_index="30" duplicate_name_allowed="false" is_data_input="true" is_node_valid="true" is_selected="false" is_storage_input="true" is_trigger_input="true" name="opal_spi_protocol:opal_spi|timeout_counter[8]" storage_index="30" tap_mode="classic" trigger_index="30" type="unknown"/>
            <node data_index="29" duplicate_name_allowed="false" is_data_input="true" is_node_valid="true" is_selected="false" is_storage_input="true" is_trigger_input="true" name="opal_spi_protocol:opal_spi|timeout_counter[7]" storage_index="29" tap_mode="classic" trigger_index="29" type="unknown"/>
            <node data_index="28" duplicate_name_allowed="false" is_data_input="true" is_node_valid="true" is_selected="false" is_storage_input="true" is_trigger_input="true" name="opal_spi_protocol:opal_spi|timeout_counter[6]" storage_index="28" tap_mode="classic" trigger_index="28" type="unknown"/>
            <node data_index="27" duplicate_name_allowed="false" is_data_input="true" is_node_valid="true" is_selected="false" is_storage_input="true" is_trigger_input="true" name="opal_spi_protocol:opal_spi|timeout_counter[5]" storage_index="27" tap_mode="classic" trigger_index="27" type="unknown"/>
            <node data_index="26" duplicate_name_allowed="false" is_data_input="true" is_node_valid="true" is_selected="false" is_storage_input="true" is_trigger_input="true" name="opal_spi_protocol:opal_spi|timeout_counter[4]" storage_index="26" tap_mode="classic" trigger_index="26" type="unknown"/>
            <node data_index="25" duplicate_name_allowed="false" is_data_input="true" is_node_valid="true" is_selected="false" is_storage_input="true" is_trigger_input="true" name="opal_spi_protocol:opal_spi|timeout_counter[3]" storage_index="25" tap_mode="classic" trigger_index="25" type="unknown"/>
            <node data_index="24" duplicate_name_allowed="false" is_data_input="true" is_node_valid="true" is_selected="false" is_storage_input="true" is_trigger_input="true" name="opal_spi_protocol:opal_spi|timeout_counter[2]" storage_index="24" tap_mode="classic" trigger_index="24" type="unknown"/>
            <node data_index="23" duplicate_name_allowed="false" is_data_input="true" is_node_valid="true" is_selected="false" is_storage_input="true" is_trigger_input="true" name="opal_spi_protocol:opal_spi|timeout_counter[1]" storage_index="23" tap_mode="classic" trigger_index="23" type="unknown"/>
            <node data_index="22" duplicate_name_allowed="false" is_data_input="true" is_node_valid="true" is_selected="false" is_storage_input="true" is_trigger_input="true" name="opal_spi_protocol:opal_spi|timeout_counter[0]" storage_index="22" tap_mode="classic" trigger_index="22" type="unknown"/>
          </node>
          <node is_selected="false" level-0="alt_or" name="opal_spi_protocol:opal_spi|hintx[5..0]" order="msb_to_lsb" state="expand" type="combinatorial">
            <node data_index="17" duplicate_name_allowed="false" is_data_input="true" is_node_valid="false" is_selected="false" is_storage_input="true" is_trigger_input="true" name="opal_spi_protocol:opal_spi|hintx[5]" storage_index="17" tap_mode="classic" trigger_index="17" type="unknown"/>
            <node data_index="16" duplicate_name_allowed="false" is_data_input="true" is_node_valid="false" is_selected="false" is_storage_input="true" is_trigger_input="true" name="opal_spi_protocol:opal_spi|hintx[4]" storage_index="16" tap_mode="classic" trigger_index="16" type="unknown"/>
            <node data_index="15" duplicate_name_allowed="false" is_data_input="true" is_node_valid="true" is_selected="false" is_storage_input="true" is_trigger_input="true" name="opal_spi_protocol:opal_spi|hintx[3]" storage_index="15" tap_mode="classic" trigger_index="15" type="unknown"/>
            <node data_index="14" duplicate_name_allowed="false" is_data_input="true" is_node_valid="true" is_selected="false" is_storage_input="true" is_trigger_input="true" name="opal_spi_protocol:opal_spi|hintx[2]" storage_index="14" tap_mode="classic" trigger_index="14" type="unknown"/>
            <node data_index="13" duplicate_name_allowed="false" is_data_input="true" is_node_valid="true" is_selected="false" is_storage_input="true" is_trigger_input="true" name="opal_spi_protocol:opal_spi|hintx[1]" storage_index="13" tap_mode="classic" trigger_index="13" type="unknown"/>
            <node data_index="12" duplicate_name_allowed="false" is_data_input="true" is_node_valid="true" is_selected="false" is_storage_input="true" is_trigger_input="true" name="opal_spi_protocol:opal_spi|hintx[0]" storage_index="12" tap_mode="classic" trigger_index="12" type="unknown"/>
          </node>
        </unified_setup_data_view>
        <data_view>
          <bus is_selected="false" level-0="alt_or" name="opal_spi_protocol:opal_spi|DATA_IN[5..0]" order="msb_to_lsb" state="collapse" storage-0="alt_or" storage-1="alt_or" storage-2="alt_or" type="combinatorial">
            <net data_index="5" duplicate_name_allowed="false" is_data_input="true" is_node_valid="true" is_selected="false" is_storage_input="true" is_trigger_input="true" level-0="dont_care" name="opal_spi_protocol:opal_spi|DATA_IN[5]" pwr_level-0="dont_care" pwr_storage-0="dont_care" pwr_storage-1="dont_care" pwr_storage-2="dont_care" storage-0="dont_care" storage-1="dont_care" storage-2="dont_care" storage_index="5" tap_mode="classic" trigger_index="5" type="unknown"/>
            <net data_index="4" duplicate_name_allowed="false" is_data_input="true" is_node_valid="true" is_selected="false" is_storage_input="true" is_trigger_input="true" level-0="dont_care" name="opal_spi_protocol:opal_spi|DATA_IN[4]" pwr_level-0="dont_care" pwr_storage-0="dont_care" pwr_storage-1="dont_care" pwr_storage-2="dont_care" storage-0="dont_care" storage-1="dont_care" storage-2="dont_care" storage_index="4" tap_mode="classic" trigger_index="4" type="unknown"/>
            <net data_index="3" duplicate_name_allowed="false" is_data_input="true" is_node_valid="true" is_selected="false" is_storage_input="true" is_trigger_input="true" level-0="dont_care" name="opal_spi_protocol:opal_spi|DATA_IN[3]" pwr_level-0="dont_care" pwr_storage-0="dont_care" pwr_storage-1="dont_care" pwr_storage-2="dont_care" storage-0="dont_care" storage-1="dont_care" storage-2="dont_care" storage_index="3" tap_mode="classic" trigger_index="3" type="unknown"/>
            <net data_index="2" duplicate_name_allowed="false" is_data_input="true" is_node_valid="true" is_selected="false" is_storage_input="true" is_trigger_input="true" level-0="dont_care" name="opal_spi_protocol:opal_spi|DATA_IN[2]" pwr_level-0="dont_care" pwr_storage-0="dont_care" pwr_storage-1="dont_care" pwr_storage-2="dont_care" storage-0="dont_care" storage-1="dont_care" storage-2="dont_care" storage_index="2" tap_mode="classic" trigger_index="2" type="unknown"/>
            <net data_index="1" duplicate_name_allowed="false" is_data_input="true" is_node_valid="true" is_selected="false" is_storage_input="true" is_trigger_input="true" level-0="dont_care" name="opal_spi_protocol:opal_spi|DATA_IN[1]" pwr_level-0="dont_care" pwr_storage-0="dont_care" pwr_storage-1="dont_care" pwr_storage-2="dont_care" storage-0="dont_care" storage-1="dont_care" storage-2="dont_care" storage_index="1" tap_mode="classic" trigger_index="1" type="unknown"/>
            <net data_index="0" duplicate_name_allowed="false" is_data_input="true" is_node_valid="true" is_selected="false" is_storage_input="true" is_trigger_input="true" level-0="dont_care" name="opal_spi_protocol:opal_spi|DATA_IN[0]" pwr_level-0="dont_care" pwr_storage-0="dont_care" pwr_storage-1="dont_care" pwr_storage-2="dont_care" storage-0="dont_care" storage-1="dont_care" storage-2="dont_care" storage_index="0" tap_mode="classic" trigger_index="0" type="unknown"/>
          </bus>
          <net data_index="6" duplicate_name_allowed="false" is_data_input="true" is_node_valid="true" is_selected="false" is_storage_input="true" is_trigger_input="true" level-0="dont_care" name="opal_spi_protocol:opal_spi|ENABLE" pwr_level-0="dont_care" pwr_storage-0="dont_care" pwr_storage-1="dont_care" pwr_storage-2="dont_care" storage-0="dont_care" storage-1="dont_care" storage-2="dont_care" storage_index="6" tap_mode="classic" trigger_index="6" type="unknown"/>
          <net data_index="10" duplicate_name_allowed="false" is_data_input="true" is_node_valid="true" is_selected="false" is_storage_input="true" is_trigger_input="true" level-0="dont_care" name="opal_spi_protocol:opal_spi|RESET" pwr_level-0="dont_care" pwr_storage-0="dont_care" pwr_storage-1="dont_care" pwr_storage-2="dont_care" storage-0="dont_care" storage-1="dont_care" storage-2="dont_care" storage_index="10" tap_mode="classic" trigger_index="10" type="unknown"/>
          <net data_index="11" duplicate_name_allowed="false" is_data_input="true" is_node_valid="true" is_selected="false" is_storage_input="true" is_trigger_input="true" level-0="dont_care" name="opal_spi_protocol:opal_spi|START" pwr_level-0="dont_care" pwr_storage-0="dont_care" pwr_storage-1="dont_care" pwr_storage-2="dont_care" storage-0="dont_care" storage-1="dont_care" storage-2="dont_care" storage_index="11" tap_mode="classic" trigger_index="11" type="unknown"/>
          <net data_index="7" duplicate_name_allowed="false" is_data_input="true" is_node_valid="true" is_selected="false" is_storage_input="true" is_trigger_input="true" level-0="dont_care" name="opal_spi_protocol:opal_spi|END_ACQ" pwr_level-0="dont_care" pwr_storage-0="dont_care" pwr_storage-1="dont_care" pwr_storage-2="dont_care" storage-0="dont_care" storage-1="dont_care" storage-2="dont_care" storage_index="7" tap_mode="classic" trigger_index="7" type="unknown"/>
          <net data_index="8" duplicate_name_allowed="false" is_data_input="true" is_node_valid="true" is_selected="false" is_storage_input="true" is_trigger_input="true" level-0="dont_care" name="opal_spi_protocol:opal_spi|OPAL_CLK" pwr_level-0="dont_care" pwr_storage-0="dont_care" pwr_storage-1="dont_care" pwr_storage-2="dont_care" storage-0="dont_care" storage-1="dont_care" storage-2="dont_care" storage_index="8" tap_mode="classic" trigger_index="8" type="unknown"/>
          <net data_index="9" duplicate_name_allowed="false" is_data_input="true" is_node_valid="true" is_selected="false" is_storage_input="true" is_trigger_input="true" level-0="dont_care" name="opal_spi_protocol:opal_spi|OPAL_CS" pwr_level-0="dont_care" pwr_storage-0="dont_care" pwr_storage-1="dont_care" pwr_storage-2="dont_care" storage-0="dont_care" storage-1="dont_care" storage-2="dont_care" storage_index="9" tap_mode="classic" trigger_index="9" type="unknown"/>
          <bus is_selected="false" level-0="alt_or" name="opal_spi_protocol:opal_spi|rx_counter[3..0]" order="msb_to_lsb" state="expand" storage-0="alt_or" storage-1="alt_or" storage-2="alt_or" type="register">
            <net data_index="21" duplicate_name_allowed="false" is_data_input="true" is_node_valid="true" is_selected="false" is_storage_input="true" is_trigger_input="true" level-0="dont_care" name="opal_spi_protocol:opal_spi|rx_counter[3]" pwr_level-0="dont_care" pwr_storage-0="dont_care" pwr_storage-1="dont_care" pwr_storage-2="dont_care" storage-0="dont_care" storage-1="dont_care" storage-2="dont_care" storage_index="21" tap_mode="classic" trigger_index="21" type="unknown"/>
            <net data_index="20" duplicate_name_allowed="false" is_data_input="true" is_node_valid="true" is_selected="false" is_storage_input="true" is_trigger_input="true" level-0="dont_care" name="opal_spi_protocol:opal_spi|rx_counter[2]" pwr_level-0="dont_care" pwr_storage-0="dont_care" pwr_storage-1="dont_care" pwr_storage-2="dont_care" storage-0="dont_care" storage-1="dont_care" storage-2="dont_care" storage_index="20" tap_mode="classic" trigger_index="20" type="unknown"/>
            <net data_index="19" duplicate_name_allowed="false" is_data_input="true" is_node_valid="true" is_selected="false" is_storage_input="true" is_trigger_input="true" level-0="dont_care" name="opal_spi_protocol:opal_spi|rx_counter[1]" pwr_level-0="dont_care" pwr_storage-0="dont_care" pwr_storage-1="dont_care" pwr_storage-2="dont_care" storage-0="dont_care" storage-1="dont_care" storage-2="dont_care" storage_index="19" tap_mode="classic" trigger_index="19" type="unknown"/>
            <net data_index="18" duplicate_name_allowed="false" is_data_input="true" is_node_valid="true" is_selected="false" is_storage_input="true" is_trigger_input="true" level-0="dont_care" name="opal_spi_protocol:opal_spi|rx_counter[0]" pwr_level-0="dont_care" pwr_storage-0="dont_care" pwr_storage-1="dont_care" pwr_storage-2="dont_care" storage-0="dont_care" storage-1="dont_care" storage-2="dont_care" storage_index="18" tap_mode="classic" trigger_index="18" type="unknown"/>
          </bus>
          <bus is_selected="false" level-0="alt_or" name="opal_spi_protocol:opal_spi|timeout_counter[8..0]" order="msb_to_lsb" type="register">
            <net data_index="30" duplicate_name_allowed="false" is_data_input="true" is_node_valid="true" is_selected="false" is_storage_input="true" is_trigger_input="true" name="opal_spi_protocol:opal_spi|timeout_counter[8]" storage_index="30" tap_mode="classic" trigger_index="30" type="unknown"/>
            <net data_index="29" duplicate_name_allowed="false" is_data_input="true" is_node_valid="true" is_selected="false" is_storage_input="true" is_trigger_input="true" name="opal_spi_protocol:opal_spi|timeout_counter[7]" storage_index="29" tap_mode="classic" trigger_index="29" type="unknown"/>
            <net data_index="28" duplicate_name_allowed="false" is_data_input="true" is_node_valid="true" is_selected="false" is_storage_input="true" is_trigger_input="true" name="opal_spi_protocol:opal_spi|timeout_counter[6]" storage_index="28" tap_mode="classic" trigger_index="28" type="unknown"/>
            <net data_index="27" duplicate_name_allowed="false" is_data_input="true" is_node_valid="true" is_selected="false" is_storage_input="true" is_trigger_input="true" name="opal_spi_protocol:opal_spi|timeout_counter[5]" storage_index="27" tap_mode="classic" trigger_index="27" type="unknown"/>
            <net data_index="26" duplicate_name_allowed="false" is_data_input="true" is_node_valid="true" is_selected="false" is_storage_input="true" is_trigger_input="true" name="opal_spi_protocol:opal_spi|timeout_counter[4]" storage_index="26" tap_mode="classic" trigger_index="26" type="unknown"/>
            <net data_index="25" duplicate_name_allowed="false" is_data_input="true" is_node_valid="true" is_selected="false" is_storage_input="true" is_trigger_input="true" name="opal_spi_protocol:opal_spi|timeout_counter[3]" storage_index="25" tap_mode="classic" trigger_index="25" type="unknown"/>
            <net data_index="24" duplicate_name_allowed="false" is_data_input="true" is_node_valid="true" is_selected="false" is_storage_input="true" is_trigger_input="true" name="opal_spi_protocol:opal_spi|timeout_counter[2]" storage_index="24" tap_mode="classic" trigger_index="24" type="unknown"/>
            <net data_index="23" duplicate_name_allowed="false" is_data_input="true" is_node_valid="true" is_selected="false" is_storage_input="true" is_trigger_input="true" name="opal_spi_protocol:opal_spi|timeout_counter[1]" storage_index="23" tap_mode="classic" trigger_index="23" type="unknown"/>
            <net data_index="22" duplicate_name_allowed="false" is_data_input="true" is_node_valid="true" is_selected="false" is_storage_input="true" is_trigger_input="true" name="opal_spi_protocol:opal_spi|timeout_counter[0]" storage_index="22" tap_mode="classic" trigger_index="22" type="unknown"/>
          </bus>
          <bus is_selected="false" level-0="alt_or" name="opal_spi_protocol:opal_spi|hintx[5..0]" order="msb_to_lsb" state="expand" type="combinatorial">
            <net data_index="17" duplicate_name_allowed="false" is_data_input="true" is_node_valid="false" is_selected="false" is_storage_input="true" is_trigger_input="true" name="opal_spi_protocol:opal_spi|hintx[5]" storage_index="17" tap_mode="classic" trigger_index="17" type="unknown"/>
            <net data_index="16" duplicate_name_allowed="false" is_data_input="true" is_node_valid="false" is_selected="false" is_storage_input="true" is_trigger_input="true" name="opal_spi_protocol:opal_spi|hintx[4]" storage_index="16" tap_mode="classic" trigger_index="16" type="unknown"/>
            <net data_index="15" duplicate_name_allowed="false" is_data_input="true" is_node_valid="true" is_selected="false" is_storage_input="true" is_trigger_input="true" name="opal_spi_protocol:opal_spi|hintx[3]" storage_index="15" tap_mode="classic" trigger_index="15" type="unknown"/>
            <net data_index="14" duplicate_name_allowed="false" is_data_input="true" is_node_valid="true" is_selected="false" is_storage_input="true" is_trigger_input="true" name="opal_spi_protocol:opal_spi|hintx[2]" storage_index="14" tap_mode="classic" trigger_index="14" type="unknown"/>
            <net data_index="13" duplicate_name_allowed="false" is_data_input="true" is_node_valid="true" is_selected="false" is_storage_input="true" is_trigger_input="true" name="opal_spi_protocol:opal_spi|hintx[1]" storage_index="13" tap_mode="classic" trigger_index="13" type="unknown"/>
            <net data_index="12" duplicate_name_allowed="false" is_data_input="true" is_node_valid="true" is_selected="false" is_storage_input="true" is_trigger_input="true" name="opal_spi_protocol:opal_spi|hintx[0]" storage_index="12" tap_mode="classic" trigger_index="12" type="unknown"/>
          </bus>
        </data_view>
        <setup_view>
          <bus is_selected="false" level-0="alt_or" name="opal_spi_protocol:opal_spi|DATA_IN[5..0]" order="msb_to_lsb" state="collapse" storage-0="alt_or" storage-1="alt_or" storage-2="alt_or" type="combinatorial">
            <net data_index="5" duplicate_name_allowed="false" is_data_input="true" is_node_valid="true" is_selected="false" is_storage_input="true" is_trigger_input="true" level-0="dont_care" name="opal_spi_protocol:opal_spi|DATA_IN[5]" pwr_level-0="dont_care" pwr_storage-0="dont_care" pwr_storage-1="dont_care" pwr_storage-2="dont_care" storage-0="dont_care" storage-1="dont_care" storage-2="dont_care" storage_index="5" tap_mode="classic" trigger_index="5" type="unknown"/>
            <net data_index="4" duplicate_name_allowed="false" is_data_input="true" is_node_valid="true" is_selected="false" is_storage_input="true" is_trigger_input="true" level-0="dont_care" name="opal_spi_protocol:opal_spi|DATA_IN[4]" pwr_level-0="dont_care" pwr_storage-0="dont_care" pwr_storage-1="dont_care" pwr_storage-2="dont_care" storage-0="dont_care" storage-1="dont_care" storage-2="dont_care" storage_index="4" tap_mode="classic" trigger_index="4" type="unknown"/>
            <net data_index="3" duplicate_name_allowed="false" is_data_input="true" is_node_valid="true" is_selected="false" is_storage_input="true" is_trigger_input="true" level-0="dont_care" name="opal_spi_protocol:opal_spi|DATA_IN[3]" pwr_level-0="dont_care" pwr_storage-0="dont_care" pwr_storage-1="dont_care" pwr_storage-2="dont_care" storage-0="dont_care" storage-1="dont_care" storage-2="dont_care" storage_index="3" tap_mode="classic" trigger_index="3" type="unknown"/>
            <net data_index="2" duplicate_name_allowed="false" is_data_input="true" is_node_valid="true" is_selected="false" is_storage_input="true" is_trigger_input="true" level-0="dont_care" name="opal_spi_protocol:opal_spi|DATA_IN[2]" pwr_level-0="dont_care" pwr_storage-0="dont_care" pwr_storage-1="dont_care" pwr_storage-2="dont_care" storage-0="dont_care" storage-1="dont_care" storage-2="dont_care" storage_index="2" tap_mode="classic" trigger_index="2" type="unknown"/>
            <net data_index="1" duplicate_name_allowed="false" is_data_input="true" is_node_valid="true" is_selected="false" is_storage_input="true" is_trigger_input="true" level-0="dont_care" name="opal_spi_protocol:opal_spi|DATA_IN[1]" pwr_level-0="dont_care" pwr_storage-0="dont_care" pwr_storage-1="dont_care" pwr_storage-2="dont_care" storage-0="dont_care" storage-1="dont_care" storage-2="dont_care" storage_index="1" tap_mode="classic" trigger_index="1" type="unknown"/>
            <net data_index="0" duplicate_name_allowed="false" is_data_input="true" is_node_valid="true" is_selected="false" is_storage_input="true" is_trigger_input="true" level-0="dont_care" name="opal_spi_protocol:opal_spi|DATA_IN[0]" pwr_level-0="dont_care" pwr_storage-0="dont_care" pwr_storage-1="dont_care" pwr_storage-2="dont_care" storage-0="dont_care" storage-1="dont_care" storage-2="dont_care" storage_index="0" tap_mode="classic" trigger_index="0" type="unknown"/>
          </bus>
          <net data_index="6" duplicate_name_allowed="false" is_data_input="true" is_node_valid="true" is_selected="false" is_storage_input="true" is_trigger_input="true" level-0="dont_care" name="opal_spi_protocol:opal_spi|ENABLE" pwr_level-0="dont_care" pwr_storage-0="dont_care" pwr_storage-1="dont_care" pwr_storage-2="dont_care" storage-0="dont_care" storage-1="dont_care" storage-2="dont_care" storage_index="6" tap_mode="classic" trigger_index="6" type="unknown"/>
          <net data_index="10" duplicate_name_allowed="false" is_data_input="true" is_node_valid="true" is_selected="false" is_storage_input="true" is_trigger_input="true" level-0="dont_care" name="opal_spi_protocol:opal_spi|RESET" pwr_level-0="dont_care" pwr_storage-0="dont_care" pwr_storage-1="dont_care" pwr_storage-2="dont_care" storage-0="dont_care" storage-1="dont_care" storage-2="dont_care" storage_index="10" tap_mode="classic" trigger_index="10" type="unknown"/>
          <net data_index="11" duplicate_name_allowed="false" is_data_input="true" is_node_valid="true" is_selected="false" is_storage_input="true" is_trigger_input="true" level-0="dont_care" name="opal_spi_protocol:opal_spi|START" pwr_level-0="dont_care" pwr_storage-0="dont_care" pwr_storage-1="dont_care" pwr_storage-2="dont_care" storage-0="dont_care" storage-1="dont_care" storage-2="dont_care" storage_index="11" tap_mode="classic" trigger_index="11" type="unknown"/>
          <net data_index="7" duplicate_name_allowed="false" is_data_input="true" is_node_valid="true" is_selected="false" is_storage_input="true" is_trigger_input="true" level-0="dont_care" name="opal_spi_protocol:opal_spi|END_ACQ" pwr_level-0="dont_care" pwr_storage-0="dont_care" pwr_storage-1="dont_care" pwr_storage-2="dont_care" storage-0="dont_care" storage-1="dont_care" storage-2="dont_care" storage_index="7" tap_mode="classic" trigger_index="7" type="unknown"/>
          <net data_index="8" duplicate_name_allowed="false" is_data_input="true" is_node_valid="true" is_selected="false" is_storage_input="true" is_trigger_input="true" level-0="dont_care" name="opal_spi_protocol:opal_spi|OPAL_CLK" pwr_level-0="dont_care" pwr_storage-0="dont_care" pwr_storage-1="dont_care" pwr_storage-2="dont_care" storage-0="dont_care" storage-1="dont_care" storage-2="dont_care" storage_index="8" tap_mode="classic" trigger_index="8" type="unknown"/>
          <net data_index="9" duplicate_name_allowed="false" is_data_input="true" is_node_valid="true" is_selected="false" is_storage_input="true" is_trigger_input="true" level-0="dont_care" name="opal_spi_protocol:opal_spi|OPAL_CS" pwr_level-0="dont_care" pwr_storage-0="dont_care" pwr_storage-1="dont_care" pwr_storage-2="dont_care" storage-0="dont_care" storage-1="dont_care" storage-2="dont_care" storage_index="9" tap_mode="classic" trigger_index="9" type="unknown"/>
          <bus is_selected="false" level-0="alt_or" name="opal_spi_protocol:opal_spi|rx_counter[3..0]" order="msb_to_lsb" state="expand" storage-0="alt_or" storage-1="alt_or" storage-2="alt_or" type="register">
            <net data_index="21" duplicate_name_allowed="false" is_data_input="true" is_node_valid="true" is_selected="false" is_storage_input="true" is_trigger_input="true" level-0="dont_care" name="opal_spi_protocol:opal_spi|rx_counter[3]" pwr_level-0="dont_care" pwr_storage-0="dont_care" pwr_storage-1="dont_care" pwr_storage-2="dont_care" storage-0="dont_care" storage-1="dont_care" storage-2="dont_care" storage_index="21" tap_mode="classic" trigger_index="21" type="unknown"/>
            <net data_index="20" duplicate_name_allowed="false" is_data_input="true" is_node_valid="true" is_selected="false" is_storage_input="true" is_trigger_input="true" level-0="dont_care" name="opal_spi_protocol:opal_spi|rx_counter[2]" pwr_level-0="dont_care" pwr_storage-0="dont_care" pwr_storage-1="dont_care" pwr_storage-2="dont_care" storage-0="dont_care" storage-1="dont_care" storage-2="dont_care" storage_index="20" tap_mode="classic" trigger_index="20" type="unknown"/>
            <net data_index="19" duplicate_name_allowed="false" is_data_input="true" is_node_valid="true" is_selected="false" is_storage_input="true" is_trigger_input="true" level-0="dont_care" name="opal_spi_protocol:opal_spi|rx_counter[1]" pwr_level-0="dont_care" pwr_storage-0="dont_care" pwr_storage-1="dont_care" pwr_storage-2="dont_care" storage-0="dont_care" storage-1="dont_care" storage-2="dont_care" storage_index="19" tap_mode="classic" trigger_index="19" type="unknown"/>
            <net data_index="18" duplicate_name_allowed="false" is_data_input="true" is_node_valid="true" is_selected="false" is_storage_input="true" is_trigger_input="true" level-0="dont_care" name="opal_spi_protocol:opal_spi|rx_counter[0]" pwr_level-0="dont_care" pwr_storage-0="dont_care" pwr_storage-1="dont_care" pwr_storage-2="dont_care" storage-0="dont_care" storage-1="dont_care" storage-2="dont_care" storage_index="18" tap_mode="classic" trigger_index="18" type="unknown"/>
          </bus>
          <bus is_selected="false" level-0="alt_or" name="opal_spi_protocol:opal_spi|timeout_counter[8..0]" order="msb_to_lsb" type="register">
            <net data_index="30" duplicate_name_allowed="false" is_data_input="true" is_node_valid="true" is_selected="false" is_storage_input="true" is_trigger_input="true" name="opal_spi_protocol:opal_spi|timeout_counter[8]" storage_index="30" tap_mode="classic" trigger_index="30" type="unknown"/>
            <net data_index="29" duplicate_name_allowed="false" is_data_input="true" is_node_valid="true" is_selected="false" is_storage_input="true" is_trigger_input="true" name="opal_spi_protocol:opal_spi|timeout_counter[7]" storage_index="29" tap_mode="classic" trigger_index="29" type="unknown"/>
            <net data_index="28" duplicate_name_allowed="false" is_data_input="true" is_node_valid="true" is_selected="false" is_storage_input="true" is_trigger_input="true" name="opal_spi_protocol:opal_spi|timeout_counter[6]" storage_index="28" tap_mode="classic" trigger_index="28" type="unknown"/>
            <net data_index="27" duplicate_name_allowed="false" is_data_input="true" is_node_valid="true" is_selected="false" is_storage_input="true" is_trigger_input="true" name="opal_spi_protocol:opal_spi|timeout_counter[5]" storage_index="27" tap_mode="classic" trigger_index="27" type="unknown"/>
            <net data_index="26" duplicate_name_allowed="false" is_data_input="true" is_node_valid="true" is_selected="false" is_storage_input="true" is_trigger_input="true" name="opal_spi_protocol:opal_spi|timeout_counter[4]" storage_index="26" tap_mode="classic" trigger_index="26" type="unknown"/>
            <net data_index="25" duplicate_name_allowed="false" is_data_input="true" is_node_valid="true" is_selected="false" is_storage_input="true" is_trigger_input="true" name="opal_spi_protocol:opal_spi|timeout_counter[3]" storage_index="25" tap_mode="classic" trigger_index="25" type="unknown"/>
            <net data_index="24" duplicate_name_allowed="false" is_data_input="true" is_node_valid="true" is_selected="false" is_storage_input="true" is_trigger_input="true" name="opal_spi_protocol:opal_spi|timeout_counter[2]" storage_index="24" tap_mode="classic" trigger_index="24" type="unknown"/>
            <net data_index="23" duplicate_name_allowed="false" is_data_input="true" is_node_valid="true" is_selected="false" is_storage_input="true" is_trigger_input="true" name="opal_spi_protocol:opal_spi|timeout_counter[1]" storage_index="23" tap_mode="classic" trigger_index="23" type="unknown"/>
            <net data_index="22" duplicate_name_allowed="false" is_data_input="true" is_node_valid="true" is_selected="false" is_storage_input="true" is_trigger_input="true" name="opal_spi_protocol:opal_spi|timeout_counter[0]" storage_index="22" tap_mode="classic" trigger_index="22" type="unknown"/>
          </bus>
          <bus is_selected="false" level-0="alt_or" name="opal_spi_protocol:opal_spi|hintx[5..0]" order="msb_to_lsb" state="expand" type="combinatorial">
            <net data_index="17" duplicate_name_allowed="false" is_data_input="true" is_node_valid="false" is_selected="false" is_storage_input="true" is_trigger_input="true" name="opal_spi_protocol:opal_spi|hintx[5]" storage_index="17" tap_mode="classic" trigger_index="17" type="unknown"/>
            <net data_index="16" duplicate_name_allowed="false" is_data_input="true" is_node_valid="false" is_selected="false" is_storage_input="true" is_trigger_input="true" name="opal_spi_protocol:opal_spi|hintx[4]" storage_index="16" tap_mode="classic" trigger_index="16" type="unknown"/>
            <net data_index="15" duplicate_name_allowed="false" is_data_input="true" is_node_valid="true" is_selected="false" is_storage_input="true" is_trigger_input="true" name="opal_spi_protocol:opal_spi|hintx[3]" storage_index="15" tap_mode="classic" trigger_index="15" type="unknown"/>
            <net data_index="14" duplicate_name_allowed="false" is_data_input="true" is_node_valid="true" is_selected="false" is_storage_input="true" is_trigger_input="true" name="opal_spi_protocol:opal_spi|hintx[2]" storage_index="14" tap_mode="classic" trigger_index="14" type="unknown"/>
            <net data_index="13" duplicate_name_allowed="false" is_data_input="true" is_node_valid="true" is_selected="false" is_storage_input="true" is_trigger_input="true" name="opal_spi_protocol:opal_spi|hintx[1]" storage_index="13" tap_mode="classic" trigger_index="13" type="unknown"/>
            <net data_index="12" duplicate_name_allowed="false" is_data_input="true" is_node_valid="true" is_selected="false" is_storage_input="true" is_trigger_input="true" name="opal_spi_protocol:opal_spi|hintx[0]" storage_index="12" tap_mode="classic" trigger_index="12" type="unknown"/>
          </bus>
        </setup_view>
        <trigger_in_editor/>
        <trigger_out_editor/>
      </presentation>
      <trigger CRC="517EDDD5" attribute_mem_mode="false" gap_record="true" global_temp="1" is_expanded="true" name="trigger: 2019/04/16 14:34:16  #1" position="pre" power_up_trigger_mode="false" record_data_gap="true" segment_size="32768" storage_mode="off" storage_qualifier_disabled="no" storage_qualifier_port_is_pin="false" storage_qualifier_port_name="auto_stp_external_storage_qualifier" storage_qualifier_port_tap_mode="classic" trigger_type="circular">
        <power_up_trigger position="pre" storage_qualifier_disabled="no"/>
        <events use_custom_flow_control="no">
          <level enabled="yes" name="condition1" type="basic"><power_up enabled="yes">
            </power_up><op_node/>
          </level>
        </events>
        <storage_qualifier_events>
          <transitional>1111111111111111111111111111111
            <pwr_up_transitional>1111111111111111111111111111111</pwr_up_transitional>
          </transitional>
          <storage_qualifier_level type="basic">
            <power_up>
            </power_up>
            <op_node/>
          </storage_qualifier_level>
          <storage_qualifier_level type="basic">
            <power_up>
            </power_up>
            <op_node/>
          </storage_qualifier_level>
          <storage_qualifier_level type="basic">
            <power_up>
            </power_up>
            <op_node/>
          </storage_qualifier_level>
        </storage_qualifier_events>
      </trigger>
    </signal_set>
    <position_info>
      <single attribute="active tab" value="0"/>
      <single attribute="data horizontal scroll position" value="0"/>
      <single attribute="data vertical scroll position" value="0"/>
      <single attribute="setup horizontal scroll position" value="0"/>
      <single attribute="setup vertical scroll position" value="0"/>
      <single attribute="zoom level denominator" value="1"/>
      <single attribute="zoom level numerator" value="1"/>
      <single attribute="zoom offset denominator" value="1"/>
      <single attribute="zoom offset numerator" value="98304"/>
    </position_info>
  </instance>
  <mnemonics/>
  <static_plugin_mnemonics/>
  <global_info>
    <single attribute="active instance" value="0"/>
    <single attribute="config widget visible" value="1"/>
    <single attribute="data log widget visible" value="1"/>
    <single attribute="hierarchy widget visible" value="1"/>
    <single attribute="instance widget visible" value="1"/>
    <single attribute="jtag widget visible" value="1"/>
    <single attribute="lock mode" value="0"/>
    <single attribute="sof manager visible" value="0"/>
    <multi attribute="frame size" size="2" value="1920,1017"/>
    <multi attribute="jtag widget size" size="2" value="348,135"/>
  </global_info>
</session>
